final_main_code
…
# Alternatively, we can examine them via table, to make it easier to compare to fair-market estimations

## this needs to be fixed and maybe use rentgrs first 
ip_BLT %>%
  select(mean_rent)

# A tibble: 126 × 1
   mean_rent
       <dbl>
 1      305.
 2      256.
 3      224.
 4      249.
 5      318.
 6      497.
 7      249.
 8      317.
 9      305.
10      287.
# ℹ 116 more rows
…
